simulation/qsim/OFDM.msim.vcd
$comment
	File created using the following command:
		vcd file OFDM.msim.vcd -direction
$end
$date
	Thu Jun 15 11:19:00 2023
$end
$version
	ModelSim Version 10.5b
$end
$timescale
	1ps
$end

$scope module delay_reg_vhd_vec_tst $end
$var wire 1 ! Data [1] $end
$var wire 1 " Data [0] $end
$var wire 1 # Data_Out [1] $end
$var wire 1 $ Data_Out [0] $end
$var wire 1 % clk $end

$scope module i1 $end
$var wire 1 & gnd $end
$var wire 1 ' vcc $end
$var wire 1 ( unknown $end
$var wire 1 ) devoe $end
$var wire 1 * devclrn $end
$var wire 1 + devpor $end
$var wire 1 , ww_devoe $end
$var wire 1 - ww_devclrn $end
$var wire 1 . ww_devpor $end
$var wire 1 / ww_clk $end
$var wire 1 0 ww_Data [1] $end
$var wire 1 1 ww_Data [0] $end
$var wire 1 2 ww_Data_Out [1] $end
$var wire 1 3 ww_Data_Out [0] $end
$var wire 1 4 \b2v_inst5|register_rtl_0|auto_generated|altsyncram5|ram_block6a0_PORTADATAIN_bus\ [39] $end
$var wire 1 5 \b2v_inst5|register_rtl_0|auto_generated|altsyncram5|ram_block6a0_PORTADATAIN_bus\ [38] $end
$var wire 1 6 \b2v_inst5|register_rtl_0|auto_generated|altsyncram5|ram_block6a0_PORTADATAIN_bus\ [37] $end
$var wire 1 7 \b2v_inst5|register_rtl_0|auto_generated|altsyncram5|ram_block6a0_PORTADATAIN_bus\ [36] $end
$var wire 1 8 \b2v_inst5|register_rtl_0|auto_generated|altsyncram5|ram_block6a0_PORTADATAIN_bus\ [35] $end
$var wire 1 9 \b2v_inst5|register_rtl_0|auto_generated|altsyncram5|ram_block6a0_PORTADATAIN_bus\ [34] $end
$var wire 1 : \b2v_inst5|register_rtl_0|auto_generated|altsyncram5|ram_block6a0_PORTADATAIN_bus\ [33] $end
$var wire 1 ; \b2v_inst5|register_rtl_0|auto_generated|altsyncram5|ram_block6a0_PORTADATAIN_bus\ [32] $end
$var wire 1 < \b2v_inst5|register_rtl_0|auto_generated|altsyncram5|ram_block6a0_PORTADATAIN_bus\ [31] $end
$var wire 1 = \b2v_inst5|register_rtl_0|auto_generated|altsyncram5|ram_block6a0_PORTADATAIN_bus\ [30] $end
$var wire 1 > \b2v_inst5|register_rtl_0|auto_generated|altsyncram5|ram_block6a0_PORTADATAIN_bus\ [29] $end
$var wire 1 ? \b2v_inst5|register_rtl_0|auto_generated|altsyncram5|ram_block6a0_PORTADATAIN_bus\ [28] $end
$var wire 1 @ \b2v_inst5|register_rtl_0|auto_generated|altsyncram5|ram_block6a0_PORTADATAIN_bus\ [27] $end
$var wire 1 A \b2v_inst5|register_rtl_0|auto_generated|altsyncram5|ram_block6a0_PORTADATAIN_bus\ [26] $end
$var wire 1 B \b2v_inst5|register_rtl_0|auto_generated|altsyncram5|ram_block6a0_PORTADATAIN_bus\ [25] $end
$var wire 1 C \b2v_inst5|register_rtl_0|auto_generated|altsyncram5|ram_block6a0_PORTADATAIN_bus\ [24] $end
$var wire 1 D \b2v_inst5|register_rtl_0|auto_generated|altsyncram5|ram_block6a0_PORTADATAIN_bus\ [23] $end
$var wire 1 E \b2v_inst5|register_rtl_0|auto_generated|altsyncram5|ram_block6a0_PORTADATAIN_bus\ [22] $end
$var wire 1 F \b2v_inst5|register_rtl_0|auto_generated|altsyncram5|ram_block6a0_PORTADATAIN_bus\ [21] $end
$var wire 1 G \b2v_inst5|register_rtl_0|auto_generated|altsyncram5|ram_block6a0_PORTADATAIN_bus\ [20] $end
$var wire 1 H \b2v_inst5|register_rtl_0|auto_generated|altsyncram5|ram_block6a0_PORTADATAIN_bus\ [19] $end
$var wire 1 I \b2v_inst5|register_rtl_0|auto_generated|altsyncram5|ram_block6a0_PORTADATAIN_bus\ [18] $end
$var wire 1 J \b2v_inst5|register_rtl_0|auto_generated|altsyncram5|ram_block6a0_PORTADATAIN_bus\ [17] $end
$var wire 1 K \b2v_inst5|register_rtl_0|auto_generated|altsyncram5|ram_block6a0_PORTADATAIN_bus\ [16] $end
$var wire 1 L \b2v_inst5|register_rtl_0|auto_generated|altsyncram5|ram_block6a0_PORTADATAIN_bus\ [15] $end
$var wire 1 M \b2v_inst5|register_rtl_0|auto_generated|altsyncram5|ram_block6a0_PORTADATAIN_bus\ [14] $end
$var wire 1 N \b2v_inst5|register_rtl_0|auto_generated|altsyncram5|ram_block6a0_PORTADATAIN_bus\ [13] $end
$var wire 1 O \b2v_inst5|register_rtl_0|auto_generated|altsyncram5|ram_block6a0_PORTADATAIN_bus\ [12] $end
$var wire 1 P \b2v_inst5|register_rtl_0|auto_generated|altsyncram5|ram_block6a0_PORTADATAIN_bus\ [11] $end
$var wire 1 Q \b2v_inst5|register_rtl_0|auto_generated|altsyncram5|ram_block6a0_PORTADATAIN_bus\ [10] $end
$var wire 1 R \b2v_inst5|register_rtl_0|auto_generated|altsyncram5|ram_block6a0_PORTADATAIN_bus\ [9] $end
$var wire 1 S \b2v_inst5|register_rtl_0|auto_generated|altsyncram5|ram_block6a0_PORTADATAIN_bus\ [8] $end
$var wire 1 T \b2v_inst5|register_rtl_0|auto_generated|altsyncram5|ram_block6a0_PORTADATAIN_bus\ [7] $end
$var wire 1 U \b2v_inst5|register_rtl_0|auto_generated|altsyncram5|ram_block6a0_PORTADATAIN_bus\ [6] $end
$var wire 1 V \b2v_inst5|register_rtl_0|auto_generated|altsyncram5|ram_block6a0_PORTADATAIN_bus\ [5] $end
$var wire 1 W \b2v_inst5|register_rtl_0|auto_generated|altsyncram5|ram_block6a0_PORTADATAIN_bus\ [4] $end
$var wire 1 X \b2v_inst5|register_rtl_0|auto_generated|altsyncram5|ram_block6a0_PORTADATAIN_bus\ [3] $end
$var wire 1 Y \b2v_inst5|register_rtl_0|auto_generated|altsyncram5|ram_block6a0_PORTADATAIN_bus\ [2] $end
$var wire 1 Z \b2v_inst5|register_rtl_0|auto_generated|altsyncram5|ram_block6a0_PORTADATAIN_bus\ [1] $end
$var wire 1 [ \b2v_inst5|register_rtl_0|auto_generated|altsyncram5|ram_block6a0_PORTADATAIN_bus\ [0] $end
$var wire 1 \ \b2v_inst5|register_rtl_0|auto_generated|altsyncram5|ram_block6a0_PORTAADDR_bus\ [4] $end
$var wire 1 ] \b2v_inst5|register_rtl_0|auto_generated|altsyncram5|ram_block6a0_PORTAADDR_bus\ [3] $end
$var wire 1 ^ \b2v_inst5|register_rtl_0|auto_generated|altsyncram5|ram_block6a0_PORTAADDR_bus\ [2] $end
$var wire 1 _ \b2v_inst5|register_rtl_0|auto_generated|altsyncram5|ram_block6a0_PORTAADDR_bus\ [1] $end
$var wire 1 ` \b2v_inst5|register_rtl_0|auto_generated|altsyncram5|ram_block6a0_PORTAADDR_bus\ [0] $end
$var wire 1 a \b2v_inst5|register_rtl_0|auto_generated|altsyncram5|ram_block6a0_PORTBADDR_bus\ [4] $end
$var wire 1 b \b2v_inst5|register_rtl_0|auto_generated|altsyncram5|ram_block6a0_PORTBADDR_bus\ [3] $end
$var wire 1 c \b2v_inst5|register_rtl_0|auto_generated|altsyncram5|ram_block6a0_PORTBADDR_bus\ [2] $end
$var wire 1 d \b2v_inst5|register_rtl_0|auto_generated|altsyncram5|ram_block6a0_PORTBADDR_bus\ [1] $end
$var wire 1 e \b2v_inst5|register_rtl_0|auto_generated|altsyncram5|ram_block6a0_PORTBADDR_bus\ [0] $end
$var wire 1 f \b2v_inst5|register_rtl_0|auto_generated|altsyncram5|ram_block6a0_PORTBDATAOUT_bus\ [39] $end
$var wire 1 g \b2v_inst5|register_rtl_0|auto_generated|altsyncram5|ram_block6a0_PORTBDATAOUT_bus\ [38] $end
$var wire 1 h \b2v_inst5|register_rtl_0|auto_generated|altsyncram5|ram_block6a0_PORTBDATAOUT_bus\ [37] $end
$var wire 1 i \b2v_inst5|register_rtl_0|auto_generated|altsyncram5|ram_block6a0_PORTBDATAOUT_bus\ [36] $end
$var wire 1 j \b2v_inst5|register_rtl_0|auto_generated|altsyncram5|ram_block6a0_PORTBDATAOUT_bus\ [35] $end
$var wire 1 k \b2v_inst5|register_rtl_0|auto_generated|altsyncram5|ram_block6a0_PORTBDATAOUT_bus\ [34] $end
$var wire 1 l \b2v_inst5|register_rtl_0|auto_generated|altsyncram5|ram_block6a0_PORTBDATAOUT_bus\ [33] $end
$var wire 1 m \b2v_inst5|register_rtl_0|auto_generated|altsyncram5|ram_block6a0_PORTBDATAOUT_bus\ [32] $end
$var wire 1 n \b2v_inst5|register_rtl_0|auto_generated|altsyncram5|ram_block6a0_PORTBDATAOUT_bus\ [31] $end
$var wire 1 o \b2v_inst5|register_rtl_0|auto_generated|altsyncram5|ram_block6a0_PORTBDATAOUT_bus\ [30] $end
$var wire 1 p \b2v_inst5|register_rtl_0|auto_generated|altsyncram5|ram_block6a0_PORTBDATAOUT_bus\ [29] $end
$var wire 1 q \b2v_inst5|register_rtl_0|auto_generated|altsyncram5|ram_block6a0_PORTBDATAOUT_bus\ [28] $end
$var wire 1 r \b2v_inst5|register_rtl_0|auto_generated|altsyncram5|ram_block6a0_PORTBDATAOUT_bus\ [27] $end
$var wire 1 s \b2v_inst5|register_rtl_0|auto_generated|altsyncram5|ram_block6a0_PORTBDATAOUT_bus\ [26] $end
$var wire 1 t \b2v_inst5|register_rtl_0|auto_generated|altsyncram5|ram_block6a0_PORTBDATAOUT_bus\ [25] $end
$var wire 1 u \b2v_inst5|register_rtl_0|auto_generated|altsyncram5|ram_block6a0_PORTBDATAOUT_bus\ [24] $end
$var wire 1 v \b2v_inst5|register_rtl_0|auto_generated|altsyncram5|ram_block6a0_PORTBDATAOUT_bus\ [23] $end
$var wire 1 w \b2v_inst5|register_rtl_0|auto_generated|altsyncram5|ram_block6a0_PORTBDATAOUT_bus\ [22] $end
$var wire 1 x \b2v_inst5|register_rtl_0|auto_generated|altsyncram5|ram_block6a0_PORTBDATAOUT_bus\ [21] $end
$var wire 1 y \b2v_inst5|register_rtl_0|auto_generated|altsyncram5|ram_block6a0_PORTBDATAOUT_bus\ [20] $end
$var wire 1 z \b2v_inst5|register_rtl_0|auto_generated|altsyncram5|ram_block6a0_PORTBDATAOUT_bus\ [19] $end
$var wire 1 { \b2v_inst5|register_rtl_0|auto_generated|altsyncram5|ram_block6a0_PORTBDATAOUT_bus\ [18] $end
$var wire 1 | \b2v_inst5|register_rtl_0|auto_generated|altsyncram5|ram_block6a0_PORTBDATAOUT_bus\ [17] $end
$var wire 1 } \b2v_inst5|register_rtl_0|auto_generated|altsyncram5|ram_block6a0_PORTBDATAOUT_bus\ [16] $end
$var wire 1 ~ \b2v_inst5|register_rtl_0|auto_generated|altsyncram5|ram_block6a0_PORTBDATAOUT_bus\ [15] $end
$var wire 1 !! \b2v_inst5|register_rtl_0|auto_generated|altsyncram5|ram_block6a0_PORTBDATAOUT_bus\ [14] $end
$var wire 1 "! \b2v_inst5|register_rtl_0|auto_generated|altsyncram5|ram_block6a0_PORTBDATAOUT_bus\ [13] $end
$var wire 1 #! \b2v_inst5|register_rtl_0|auto_generated|altsyncram5|ram_block6a0_PORTBDATAOUT_bus\ [12] $end
$var wire 1 $! \b2v_inst5|register_rtl_0|auto_generated|altsyncram5|ram_block6a0_PORTBDATAOUT_bus\ [11] $end
$var wire 1 %! \b2v_inst5|register_rtl_0|auto_generated|altsyncram5|ram_block6a0_PORTBDATAOUT_bus\ [10] $end
$var wire 1 &! \b2v_inst5|register_rtl_0|auto_generated|altsyncram5|ram_block6a0_PORTBDATAOUT_bus\ [9] $end
$var wire 1 '! \b2v_inst5|register_rtl_0|auto_generated|altsyncram5|ram_block6a0_PORTBDATAOUT_bus\ [8] $end
$var wire 1 (! \b2v_inst5|register_rtl_0|auto_generated|altsyncram5|ram_block6a0_PORTBDATAOUT_bus\ [7] $end
$var wire 1 )! \b2v_inst5|register_rtl_0|auto_generated|altsyncram5|ram_block6a0_PORTBDATAOUT_bus\ [6] $end
$var wire 1 *! \b2v_inst5|register_rtl_0|auto_generated|altsyncram5|ram_block6a0_PORTBDATAOUT_bus\ [5] $end
$var wire 1 +! \b2v_inst5|register_rtl_0|auto_generated|altsyncram5|ram_block6a0_PORTBDATAOUT_bus\ [4] $end
$var wire 1 ,! \b2v_inst5|register_rtl_0|auto_generated|altsyncram5|ram_block6a0_PORTBDATAOUT_bus\ [3] $end
$var wire 1 -! \b2v_inst5|register_rtl_0|auto_generated|altsyncram5|ram_block6a0_PORTBDATAOUT_bus\ [2] $end
$var wire 1 .! \b2v_inst5|register_rtl_0|auto_generated|altsyncram5|ram_block6a0_PORTBDATAOUT_bus\ [1] $end
$var wire 1 /! \b2v_inst5|register_rtl_0|auto_generated|altsyncram5|ram_block6a0_PORTBDATAOUT_bus\ [0] $end
$var wire 1 0! \~QUARTUS_CREATED_GND~I_combout\ $end
$var wire 1 1! \clk~input_o\ $end
$var wire 1 2! \clk~inputCLKENA0_outclk\ $end
$var wire 1 3! \Data[0]~input_o\ $end
$var wire 1 4! \b2v_inst4|register[0]~feeder_combout\ $end
$var wire 1 5! \b2v_inst5|register_rtl_0|auto_generated|cntr1|counter_comb_bita0~sumout\ $end
$var wire 1 6! \b2v_inst5|register_rtl_0|auto_generated|cntr1|counter_comb_bita0~COUT\ $end
$var wire 1 7! \b2v_inst5|register_rtl_0|auto_generated|cntr1|counter_comb_bita1~sumout\ $end
$var wire 1 8! \b2v_inst5|register_rtl_0|auto_generated|cntr1|counter_comb_bita1~COUT\ $end
$var wire 1 9! \b2v_inst5|register_rtl_0|auto_generated|cntr1|counter_comb_bita2~sumout\ $end
$var wire 1 :! \b2v_inst5|register_rtl_0|auto_generated|cntr1|counter_comb_bita2~COUT\ $end
$var wire 1 ;! \b2v_inst5|register_rtl_0|auto_generated|cntr1|counter_comb_bita3~sumout\ $end
$var wire 1 <! \b2v_inst5|register_rtl_0|auto_generated|cntr1|counter_comb_bita3~COUT\ $end
$var wire 1 =! \b2v_inst5|register_rtl_0|auto_generated|cntr1|counter_comb_bita4~sumout\ $end
$var wire 1 >! \b2v_inst5|register_rtl_0|auto_generated|cntr1|counter_reg_bit[1]~DUPLICATE_q\ $end
$var wire 1 ?! \b2v_inst5|register_rtl_0|auto_generated|cntr1|counter_comb_bita4~COUT\ $end
$var wire 1 @! \b2v_inst5|register_rtl_0|auto_generated|cntr1|counter_comb_bita4~1_sumout\ $end
$var wire 1 A! \b2v_inst5|register_rtl_0|auto_generated|cntr1|cout_actual~combout\ $end
$var wire 1 B! \b2v_inst5|register_rtl_0|auto_generated|op_1~1_sumout\ $end
$var wire 1 C! \b2v_inst5|register_rtl_0|auto_generated|op_1~2\ $end
$var wire 1 D! \b2v_inst5|register_rtl_0|auto_generated|op_1~5_sumout\ $end
$var wire 1 E! \b2v_inst5|register_rtl_0|auto_generated|dffe3a[1]~0_combout\ $end
$var wire 1 F! \b2v_inst5|register_rtl_0|auto_generated|dffe3a[1]~_wirecell_combout\ $end
$var wire 1 G! \b2v_inst5|register_rtl_0|auto_generated|cntr1|counter_reg_bit[3]~DUPLICATE_q\ $end
$var wire 1 H! \b2v_inst5|register_rtl_0|auto_generated|op_2~0_combout\ $end
$var wire 1 I! \b2v_inst5|register_rtl_0|auto_generated|cmpr4_aeb_int~0_combout\ $end
$var wire 1 J! \b2v_inst5|register_rtl_0|auto_generated|op_1~6\ $end
$var wire 1 K! \b2v_inst5|register_rtl_0|auto_generated|op_1~9_sumout\ $end
$var wire 1 L! \b2v_inst5|register_rtl_0|auto_generated|op_1~10\ $end
$var wire 1 M! \b2v_inst5|register_rtl_0|auto_generated|op_1~13_sumout\ $end
$var wire 1 N! \b2v_inst5|register_rtl_0|auto_generated|op_1~14\ $end
$var wire 1 O! \b2v_inst5|register_rtl_0|auto_generated|op_1~17_sumout\ $end
$var wire 1 P! \Data[1]~input_o\ $end
$var wire 1 Q! \b2v_inst|register[1]~feeder_combout\ $end
$var wire 1 R! \b2v_inst4|register[1]~feeder_combout\ $end
$var wire 1 S! \b2v_inst5|register_rtl_0|auto_generated|altsyncram5|ram_block6a0~portbdataout\ $end
$var wire 1 T! \b2v_inst5|register_rtl_0|auto_generated|altsyncram5|ram_block6a1\ $end
$var wire 1 U! \b2v_inst5|register_rtl_0|auto_generated|dffe3a\ [4] $end
$var wire 1 V! \b2v_inst5|register_rtl_0|auto_generated|dffe3a\ [3] $end
$var wire 1 W! \b2v_inst5|register_rtl_0|auto_generated|dffe3a\ [2] $end
$var wire 1 X! \b2v_inst5|register_rtl_0|auto_generated|dffe3a\ [1] $end
$var wire 1 Y! \b2v_inst5|register_rtl_0|auto_generated|dffe3a\ [0] $end
$var wire 1 Z! \b2v_inst5|register_rtl_0|auto_generated|cntr1|counter_reg_bit\ [4] $end
$var wire 1 [! \b2v_inst5|register_rtl_0|auto_generated|cntr1|counter_reg_bit\ [3] $end
$var wire 1 \! \b2v_inst5|register_rtl_0|auto_generated|cntr1|counter_reg_bit\ [2] $end
$var wire 1 ]! \b2v_inst5|register_rtl_0|auto_generated|cntr1|counter_reg_bit\ [1] $end
$var wire 1 ^! \b2v_inst5|register_rtl_0|auto_generated|cntr1|counter_reg_bit\ [0] $end
$var wire 1 _! \b2v_inst33|register\ [1] $end
$var wire 1 `! \b2v_inst33|register\ [0] $end
$var wire 1 a! \b2v_inst4|register\ [1] $end
$var wire 1 b! \b2v_inst4|register\ [0] $end
$var wire 1 c! \b2v_inst|register\ [1] $end
$var wire 1 d! \b2v_inst|register\ [0] $end
$var wire 1 e! \b2v_inst5|register_rtl_0|auto_generated|ALT_INV_op_1~5_sumout\ $end
$var wire 1 f! \b2v_inst5|register_rtl_0|auto_generated|ALT_INV_dffe3a\ [1] $end
$var wire 1 g! \b2v_inst|ALT_INV_register\ [1] $end
$var wire 1 h! \b2v_inst|ALT_INV_register\ [0] $end
$var wire 1 i! \b2v_inst5|register_rtl_0|auto_generated|ALT_INV_cmpr4_aeb_int~0_combout\ $end
$var wire 1 j! \b2v_inst5|register_rtl_0|auto_generated|ALT_INV_op_2~0_combout\ $end
$var wire 1 k! \b2v_inst5|register_rtl_0|auto_generated|cntr1|ALT_INV_counter_reg_bit[1]~DUPLICATE_q\ $end
$var wire 1 l! \b2v_inst5|register_rtl_0|auto_generated|cntr1|ALT_INV_counter_reg_bit[3]~DUPLICATE_q\ $end
$var wire 1 m! \ALT_INV_Data[1]~input_o\ $end
$var wire 1 n! \b2v_inst5|register_rtl_0|auto_generated|cntr1|ALT_INV_counter_comb_bita4~1_sumout\ $end
$var wire 1 o! \b2v_inst5|register_rtl_0|auto_generated|cntr1|ALT_INV_counter_reg_bit\ [4] $end
$var wire 1 p! \b2v_inst5|register_rtl_0|auto_generated|cntr1|ALT_INV_counter_reg_bit\ [3] $end
$var wire 1 q! \b2v_inst5|register_rtl_0|auto_generated|cntr1|ALT_INV_counter_reg_bit\ [2] $end
$var wire 1 r! \b2v_inst5|register_rtl_0|auto_generated|cntr1|ALT_INV_counter_reg_bit\ [1] $end
$var wire 1 s! \b2v_inst5|register_rtl_0|auto_generated|cntr1|ALT_INV_counter_reg_bit\ [0] $end
$upscope $end
$upscope $end
$enddefinitions $end
#0
$dumpvars
0%
0&
1'
x(
1)
1*
1+
1,
1-
1.
0/
x0!
01!
02!
03!
04!
15!
06!
07!
08!
09!
0:!
0;!
0<!
0=!
0>!
0?!
0@!
0A!
1B!
0C!
1D!
0E!
1F!
0G!
0H!
0I!
0J!
0K!
0L!
0M!
0N!
0O!
0P!
0Q!
0R!
0S!
0T!
0e!
1i!
1j!
1k!
1l!
1m!
1n!
0!
0"
00
01
02
03
0f
0g
0h
0i
0j
0k
0l
0m
0n
0o
0p
0q
0r
0s
0t
0u
0v
0w
0x
0y
0z
0{
0|
0}
0~
0!!
0"!
0#!
0$!
0%!
0&!
0'!
0(!
0)!
0*!
0+!
0,!
0-!
0.!
0/!
0U!
0V!
0W!
0X!
0Y!
0Z!
0[!
0\!
0]!
0^!
0_!
0`!
0a!
0b!
0c!
0d!
1f!
1g!
1h!
1o!
1p!
1q!
1r!
1s!
04
05
06
07
08
09
0:
0;
0<
0=
0>
0?
0@
0A
0B
0C
0D
0E
0F
0G
0H
0I
0J
0K
0L
0M
0N
0O
0P
0Q
0R
0S
0T
0U
0V
0W
0X
0Y
0Z
0[
0\
0]
0^
0_
0`
0a
0b
0c
1d
0e
0#
0$
$end
#5000
1%
1/
11!
12!
1^!
1Y!
0s!
1`
1e
05!
16!
0B!
1C!
0D!
1J!
17!
1e!
1K!
1E!
#10000
0%
1"
0/
11
13!
01!
02!
#15000
1%
1/
11!
12!
1d!
1]!
1>!
0^!
0Y!
1X!
1W!
0f!
1s!
0k!
0r!
0h!
0`
1_
0e
1c
14!
07!
18!
1D!
15!
06!
1B!
0C!
0F!
0e!
0d
0D!
17!
08!
19!
0E!
1e!
09!
1E!
#20000
0%
0"
1!
0/
01
10
1P!
03!
01!
02!
0m!
1Q!
#25000
1%
1/
11!
12!
0d!
1b!
1^!
1Y!
1c!
0g!
0s!
1h!
1[
1`
1e
04!
05!
16!
0B!
1C!
1R!
1D!
07!
18!
0e!
19!
0E!
#30000
0%
1"
0/
11
13!
01!
02!
#35000
1%
1/
11!
12!
1d!
0b!
0]!
1\!
0>!
0^!
0Y!
0X!
1a!
1f!
1s!
1k!
0q!
1r!
0h!
0[
1Z
0`
0_
1^
0e
14!
17!
08!
09!
1:!
0K!
1L!
0D!
15!
06!
1B!
0C!
1F!
1e!
1d
1D!
0J!
07!
1M!
1;!
19!
0:!
1E!
0e!
0;!
1K!
0L!
0E!
0M!
#40000
0%
0"
0!
0/
01
00
0P!
03!
01!
02!
1m!
0Q!
#45000
1%
1/
11!
12!
0d!
1b!
1^!
1Y!
0c!
1g!
0s!
1h!
1[
1`
1e
04!
05!
16!
0B!
1C!
0R!
0D!
1J!
17!
1e!
0K!
1L!
1E!
1M!
#50000
0%
1"
0/
11
13!
01!
02!
#55000
1%
1/
11!
12!
1d!
0b!
1]!
1>!
0^!
0Y!
1X!
0W!
1V!
0a!
0f!
1s!
0k!
0r!
0h!
0[
0Z
0`
1_
0e
0c
1b
14!
07!
18!
1D!
15!
06!
1B!
0C!
0F!
0e!
0d
0D!
17!
08!
09!
1:!
0E!
1e!
1;!
19!
0:!
1E!
0;!
#60000
0%
0"
1!
0/
01
10
1P!
03!
01!
02!
0m!
1Q!
#65000
1%
1/
11!
12!
0d!
1b!
1^!
1Y!
1c!
0g!
0s!
1h!
1[
1`
1e
04!
05!
16!
0B!
1C!
1R!
1D!
07!
18!
0e!
09!
1:!
0E!
1;!
#70000
0%
1"
0/
11
13!
01!
02!
#75000
1%
1/
11!
12!
1d!
0b!
0]!
0\!
1[!
0>!
0^!
0Y!
0X!
1G!
1a!
0l!
1f!
1s!
1k!
0p!
1q!
1r!
0h!
0[
1Z
0`
0_
0^
1]
0e
14!
17!
08!
19!
0:!
1K!
0L!
0;!
1<!
0D!
15!
06!
1B!
0C!
1F!
0M!
1N!
1e!
1d
1O!
1D!
0J!
07!
1=!
1M!
0N!
1;!
0<!
09!
1E!
0e!
0=!
0O!
0K!
0E!
#80000
0%
0"
0!
0/
01
00
0P!
03!
01!
02!
1m!
0Q!
#85000
1%
1/
11!
12!
0d!
1b!
1^!
1Y!
0c!
1g!
0s!
1h!
1[
1`
1e
04!
05!
16!
0B!
1C!
0R!
0D!
1J!
17!
1e!
1K!
1E!
#90000
0%
1"
0/
11
13!
01!
02!
#95000
1%
1/
11!
12!
1d!
0b!
1]!
1>!
0^!
0Y!
1X!
1W!
0a!
0f!
1s!
0k!
0r!
0h!
0[
0Z
0`
1_
0e
1c
14!
07!
18!
1D!
15!
06!
1B!
0C!
0F!
0e!
0d
0D!
17!
08!
19!
0E!
1e!
09!
1E!
#100000
0%
0"
1!
0/
01
10
1P!
03!
01!
02!
0m!
1Q!
#105000
1%
1/
11!
12!
0d!
1b!
1^!
1Y!
1c!
0g!
0s!
1h!
1[
1`
1e
04!
05!
16!
0B!
1C!
1R!
1D!
07!
18!
0e!
19!
0E!
#110000
0%
1"
0/
11
13!
01!
02!
#115000
1%
1/
11!
12!
1d!
0b!
0]!
1\!
0>!
0^!
0Y!
0X!
1a!
1f!
1s!
1k!
0q!
1r!
0h!
0[
1Z
0`
0_
1^
0e
14!
17!
08!
09!
1:!
0K!
1L!
0D!
15!
06!
1B!
0C!
1F!
1e!
1d
1D!
0J!
07!
0M!
1N!
0;!
1<!
19!
0:!
1E!
0e!
1;!
0<!
1=!
1O!
1K!
0L!
0E!
1M!
0N!
0=!
0O!
#120000
0%
0"
0!
0/
01
00
0P!
03!
01!
02!
1m!
0Q!
#125000
1%
1/
11!
12!
0d!
1b!
1^!
1Y!
0c!
1g!
0s!
1h!
1[
1`
1e
04!
05!
16!
0B!
1C!
0R!
0D!
1J!
17!
1e!
0K!
1L!
1E!
0M!
1N!
1O!
#130000
0%
1"
0/
11
13!
01!
02!
#135000
1%
1/
11!
12!
1d!
0b!
1]!
1>!
0^!
0Y!
1X!
0W!
0V!
1U!
0a!
0f!
1s!
0k!
0r!
0h!
0[
0Z
0`
1_
0e
0c
0b
1a
14!
07!
18!
1D!
15!
06!
1B!
0C!
0F!
0e!
0d
0D!
17!
08!
09!
1:!
0E!
1e!
0;!
1<!
19!
0:!
1E!
1;!
0<!
1=!
0=!
#140000
0%
0"
1!
0/
01
10
1P!
03!
01!
02!
0m!
1Q!
#145000
1%
1/
11!
12!
0d!
1b!
1^!
1Y!
1c!
0g!
0s!
1h!
1[
1`
1e
04!
05!
16!
0B!
1C!
1R!
1D!
07!
18!
0e!
09!
1:!
0E!
0;!
1<!
1=!
#150000
0%
1"
0/
11
13!
01!
02!
#155000
1%
1/
11!
12!
1d!
0b!
0]!
0\!
0[!
1Z!
0>!
0^!
0Y!
0X!
0G!
1a!
1l!
1f!
1s!
1k!
0o!
1p!
1q!
1r!
0h!
0[
1Z
0`
0_
0^
0]
1\
0e
14!
17!
08!
19!
0:!
1K!
0L!
1;!
0<!
0=!
1?!
0O!
0D!
15!
06!
1B!
0C!
1F!
1M!
0N!
1e!
1d
1O!
1D!
0J!
07!
1@!
1=!
0?!
0M!
0;!
09!
1E!
0n!
0e!
0@!
0K!
0E!
1A!
1n!
0A!
#160000
0%
0"
0!
0/
01
00
0P!
03!
01!
02!
1m!
0Q!
#165000
1%
1/
11!
12!
0d!
1b!
1^!
1Y!
0c!
1g!
0s!
1h!
1[
1`
1e
04!
05!
16!
0B!
1C!
0R!
0D!
1J!
17!
1e!
1K!
1E!
#170000
0%
1"
0/
11
13!
01!
02!
#175000
1%
1/
11!
12!
1d!
0b!
1]!
1>!
0^!
0Y!
1X!
1W!
0a!
0f!
1s!
0k!
0r!
0h!
0[
0Z
0`
1_
0e
1c
14!
07!
18!
1D!
15!
06!
1B!
0C!
0F!
0e!
0d
0D!
17!
08!
19!
0E!
1e!
09!
1E!
#180000
0%
0"
1!
0/
01
10
1P!
03!
01!
02!
0m!
1Q!
#185000
1%
1/
11!
12!
0d!
1b!
1^!
1Y!
1c!
0g!
0s!
1h!
1[
1`
1e
04!
05!
16!
0B!
1C!
1R!
1D!
07!
18!
0e!
19!
0E!
#190000
0%
1"
0/
11
13!
01!
02!
#195000
1%
1/
11!
12!
1d!
0b!
0]!
1\!
0>!
0^!
0Y!
0X!
1a!
1f!
1s!
1k!
0q!
1r!
0h!
0[
1Z
0`
0_
1^
0e
14!
17!
08!
09!
1:!
0K!
1L!
0D!
15!
06!
1B!
0C!
1F!
1e!
1d
1D!
0J!
07!
1M!
1;!
19!
0:!
1E!
0e!
0;!
1K!
0L!
0E!
0M!
#200000
0%
0"
0!
0/
01
00
0P!
03!
01!
02!
1m!
0Q!
#205000
1%
1/
11!
12!
0d!
1b!
1^!
1Y!
0c!
1g!
0s!
1h!
1[
1`
1e
04!
05!
16!
0B!
1C!
0R!
0D!
1J!
17!
1e!
0K!
1L!
1E!
1M!
#210000
0%
1"
0/
11
13!
01!
02!
#215000
1%
1/
11!
12!
1d!
0b!
1]!
1>!
0^!
0Y!
1X!
0W!
1V!
0a!
0f!
1s!
0k!
0r!
0h!
0[
0Z
0`
1_
0e
0c
1b
14!
07!
18!
1D!
15!
06!
1B!
0C!
0F!
0e!
0d
0D!
17!
08!
09!
1:!
0E!
1e!
1;!
19!
0:!
1E!
0;!
#220000
0%
0"
1!
0/
01
10
1P!
03!
01!
02!
0m!
1Q!
#225000
1%
1/
11!
12!
0d!
1b!
1^!
1Y!
1c!
0g!
0s!
1h!
1[
1`
1e
04!
05!
16!
0B!
1C!
1R!
1D!
07!
18!
0e!
09!
1:!
0E!
1;!
#230000
0%
1"
0/
11
13!
01!
02!
#235000
1%
1/
11!
12!
1d!
0b!
0]!
0\!
1[!
0>!
0^!
0Y!
0X!
1G!
1a!
0l!
1f!
1s!
1k!
0p!
1q!
1r!
0h!
0[
1Z
0`
0_
0^
1]
0e
14!
17!
08!
19!
0:!
1K!
0L!
0;!
1<!
0D!
15!
06!
1B!
0C!
1F!
0M!
1N!
1e!
1d
0O!
1D!
0J!
07!
0=!
1?!
1M!
0N!
1;!
0<!
09!
1E!
0e!
1=!
0?!
1O!
1@!
0K!
0E!
0n!
0@!
1A!
1n!
0A!
#240000
0%
0"
0!
0/
01
00
0P!
03!
01!
02!
1m!
0Q!
#245000
1%
1/
11!
12!
0d!
1b!
1^!
1Y!
0c!
1g!
0s!
1h!
1[
1`
1e
04!
05!
16!
0B!
1C!
1I!
0R!
0i!
0D!
1J!
17!
1K!
1e!
0K!
1L!
1E!
0M!
1N!
0O!
#250000
0%
1"
0/
11
13!
01!
02!
